{
  "project_info": {
    "project_number": "599905481116",
    "firebase_url": "https://digital-form-be15d.firebaseio.com",
    "project_id": "digital-form-be15d",
    "storage_bucket": "digital-form-be15d.appspot.com"
  },
  "client": [
    {
      "client_info": {
        "mobilesdk_app_id": "1:599905481116:android:54f9994d87b4afec",
        "android_client_info": {
          "package_name": "com.digitalform"
        }
      },
      "oauth_client": [
        {
          "client_id": "599905481116-0aa956sc14qc72hstb2ofi5jh9ju89dn.apps.googleusercontent.com",
          "client_type": 3
        }
      ],
      "api_key": [
        {
          "current_key": "AIzaSyAlsFVT7IYdAKgO-ZEygna8gqMZRqh5bIE"
        }
      ],
      "services": {
        "analytics_service": {
          "status": 1
        },
        "appinvite_service": {
          "status": 1,
          "other_platform_oauth_client": []
        },
        "ads_service": {
          "status": 2
        }
      }
    },
    {
      "client_info": {
        "mobilesdk_app_id": "1:599905481116:android:7e6606d7b6fb7bff",
        "android_client_info": {
          "package_name": "th.co.mimotech.aismform"
        }
      },
      "oauth_client": [
        {
          "client_id": "599905481116-c5c7b47k1c79mbu942bpl91nsgi9jh1h.apps.googleusercontent.com",
          "client_type": 1,
          "android_info": {
            "package_name": "th.co.mimotech.aismform",
            "certificate_hash": "ff6131c83203af14722d0f62924b96a8741d70b8"
          }
        },
        {
          "client_id": "599905481116-cc9hocb71vtli1ivimr355p90hnopkqa.apps.googleusercontent.com",
          "client_type": 1,
          "android_info": {
            "package_name": "th.co.mimotech.aismform",
            "certificate_hash": "cf6a3db4e4dda63b2e2c4c611364a2066d17ddf6"
          }
        },
        {
          "client_id": "599905481116-0aa956sc14qc72hstb2ofi5jh9ju89dn.apps.googleusercontent.com",
          "client_type": 3
        }
      ],
      "api_key": [
        {
          "current_key": "AIzaSyAlsFVT7IYdAKgO-ZEygna8gqMZRqh5bIE"
        }
      ],
      "services": {
        "analytics_service": {
          "status": 1
        },
        "appinvite_service": {
          "status": 2,
          "other_platform_oauth_client": [
            {
              "client_id": "599905481116-0aa956sc14qc72hstb2ofi5jh9ju89dn.apps.googleusercontent.com",
              "client_type": 3
            },
            {
              "client_id": "599905481116-kutbcors1ocm652qcillk1d7inah2giq.apps.googleusercontent.com",
              "client_type": 2,
              "ios_info": {
                "bundle_id": "th.co.mimotech.ios.enterprise.digitalform"
              }
            }
          ]
        },
        "ads_service": {
          "status": 2
        }
      }
    },
    {
      "client_info": {
        "mobilesdk_app_id": "1:599905481116:android:eb7479c9a68c94e2",
        "android_client_info": {
          "package_name": "th.co.mimotech.enterprise.aismform"
        }
      },
      "oauth_client": [
        {
          "client_id": "599905481116-0aa956sc14qc72hstb2ofi5jh9ju89dn.apps.googleusercontent.com",
          "client_type": 3
        }
      ],
      "api_key": [
        {
          "current_key": "AIzaSyAlsFVT7IYdAKgO-ZEygna8gqMZRqh5bIE"
        }
      ],
      "services": {
        "analytics_service": {
          "status": 1
        },
        "appinvite_service": {
          "status": 1,
          "other_platform_oauth_client": []
        },
        "ads_service": {
          "status": 2
        }
      }
    },
    {
      "client_info": {
        "mobilesdk_app_id": "1:599905481116:android:87cfa0250b8fd4e4",
        "android_client_info": {
          "package_name": "th.co.mimotech.staging.aismform"
        }
      },
      "oauth_client": [
        {
          "client_id": "599905481116-0aa956sc14qc72hstb2ofi5jh9ju89dn.apps.googleusercontent.com",
          "client_type": 3
        }
      ],
      "api_key": [
        {
          "current_key": "AIzaSyAlsFVT7IYdAKgO-ZEygna8gqMZRqh5bIE"
        }
      ],
      "services": {
        "analytics_service": {
          "status": 1
        },
        "appinvite_service": {
          "status": 1,
          "other_platform_oauth_client": []
        },
        "ads_service": {
          "status": 2
        }
      }
    }
  ],
  "configuration_version": "1"
}